<?xml version="1.0" encoding="utf-8"?>
<!-- Generator: Adobe Illustrator 16.0.0, SVG Export Plug-In . SVG Version: 6.00 Build 0)  -->
<!DOCTYPE svg PUBLIC "-//W3C//DTD SVG 1.1//EN" "http://www.w3.org/Graphics/SVG/1.1/DTD/svg11.dtd">
<svg version="1.1" id="Layer_1" xmlns="http://www.w3.org/2000/svg" xmlns:xlink="http://www.w3.org/1999/xlink" x="0px" y="0px"
	 width="50px" height="50px" viewBox="0 0 50 50" enable-background="new 0 0 50 50" xml:space="preserve">
<g>
	<path fill="#0012FF" d="M33.841,47.459H17.622c-3.396,0-6.159-2.763-6.159-6.158V8.01c0-3.396,2.763-6.159,6.159-6.159h16.219
		C37.237,1.851,40,4.613,40,8.01v33.291C40,44.696,37.237,47.459,33.841,47.459z M17.622,5.951c-1.136,0-2.06,0.924-2.06,2.059
		v33.291c0,1.135,0.924,2.058,2.06,2.058h16.219c1.136,0,2.06-0.923,2.06-2.058V8.01c0-1.135-0.924-2.059-2.06-2.059H17.622z"/>
</g>
<g>
	<path fill="#0012FF" d="M29.643,7.515H21.82c-1.132,0-2.051-0.917-2.051-2.05c0-1.132,0.919-2.05,2.051-2.05h7.822
		c1.134,0,2.051,0.917,2.051,2.05C31.693,6.598,30.776,7.515,29.643,7.515z"/>
</g>
<g>
	<circle fill="#0012FF" cx="25.732" cy="38.834" r="2.61"/>
</g>
</svg>
