<?xml version="1.0" encoding="utf-8"?>
<!-- Generator: Adobe Illustrator 16.0.0, SVG Export Plug-In . SVG Version: 6.00 Build 0)  -->
<!DOCTYPE svg PUBLIC "-//W3C//DTD SVG 1.1//EN" "http://www.w3.org/Graphics/SVG/1.1/DTD/svg11.dtd">
<svg version="1.1" id="Layer_1" xmlns="http://www.w3.org/2000/svg" xmlns:xlink="http://www.w3.org/1999/xlink" x="0px" y="0px"
	 width="50px" height="50px" viewBox="0 0 50 50" enable-background="new 0 0 50 50" xml:space="preserve">
<g>
	<path d="M25,44.156c-0.337,0-0.678-0.09-0.979-0.271C5.21,32.7,3.635,24.356,3.635,17.414c0-6.812,5.121-11.57,12.455-11.57
		c4.488,0,7.295,2.689,8.911,5.098c1.616-2.409,4.423-5.098,8.912-5.098c7.334,0,12.453,4.758,12.453,11.57
		c0,6.943-1.574,15.287-20.385,26.472C25.678,44.066,25.341,44.156,25,44.156z M16.089,9.675c-5.238,0-8.623,3.038-8.623,7.739
		c0,4.471,0,11.898,17.534,22.59c17.534-10.691,17.534-18.12,17.534-22.59c0-4.701-3.384-7.739-8.622-7.739
		c-5.154,0-7.061,6.04-7.078,6.1c-0.248,0.806-0.993,1.356-1.834,1.356c-0.842,0-1.585-0.55-1.83-1.356
		C23.092,15.532,21.195,9.675,16.089,9.675z"/>
</g>
</svg>
