<?xml version="1.0" encoding="utf-8"?>
<!-- Generator: Adobe Illustrator 16.0.0, SVG Export Plug-In . SVG Version: 6.00 Build 0)  -->
<!DOCTYPE svg PUBLIC "-//W3C//DTD SVG 1.1//EN" "http://www.w3.org/Graphics/SVG/1.1/DTD/svg11.dtd">
<svg version="1.1" id="Layer_1" xmlns="http://www.w3.org/2000/svg" xmlns:xlink="http://www.w3.org/1999/xlink" x="0px" y="0px"
	 width="50px" height="50px" viewBox="0 0 50 50" enable-background="new 0 0 50 50" xml:space="preserve">
<g>
	<circle fill="#1E2255" cx="24.666" cy="25.435" r="5.182"/>
</g>
<g>
	<path fill="#1E2255" d="M27.377,48.334h-5.423c-2.689,0-4.878-2.188-4.878-4.878v-2.843c-0.6-0.301-1.185-0.645-1.754-1.023
		l-2.469,1.429c-0.74,0.429-1.584,0.654-2.438,0.654c-1.735,0-3.356-0.935-4.224-2.439l-2.712-4.696
		c-0.652-1.13-0.824-2.443-0.488-3.702c0.338-1.258,1.146-2.311,2.273-2.96l2.464-1.423c-0.024-0.353-0.037-0.688-0.037-1.018
		c0-0.328,0.013-0.664,0.037-1.017l-2.464-1.423c-1.128-0.649-1.936-1.702-2.273-2.96c-0.336-1.259-0.164-2.572,0.488-3.702
		l2.71-4.697c0.869-1.504,2.49-2.439,4.226-2.439c0.854,0,1.698,0.226,2.438,0.656l2.469,1.427c0.569-0.378,1.154-0.722,1.754-1.022
		V7.414c0-2.688,2.188-4.877,4.878-4.877h5.423c2.688,0,4.876,2.189,4.876,4.877v2.844c0.602,0.301,1.188,0.644,1.757,1.022
		l2.469-1.428c0.741-0.429,1.584-0.655,2.436-0.655c1.739,0,3.358,0.935,4.229,2.439l2.712,4.697c0.65,1.13,0.823,2.443,0.484,3.702
		c-0.336,1.258-1.144,2.311-2.271,2.96l-2.462,1.423c0.024,0.353,0.034,0.688,0.034,1.017c0,0.329-0.01,0.665-0.034,1.018
		l2.462,1.423c1.128,0.649,1.936,1.702,2.271,2.96c0.339,1.259,0.166,2.572-0.484,3.702l-2.712,4.696
		c-0.87,1.505-2.489,2.439-4.229,2.439l0,0c-0.852,0-1.694-0.226-2.436-0.655L34.01,39.59c-0.568,0.379-1.155,0.723-1.757,1.023
		v2.843C32.253,46.146,30.065,48.334,27.377,48.334z M15.427,35.631c0.392,0,0.781,0.128,1.105,0.377
		c0.954,0.735,1.979,1.33,3.048,1.773c0.675,0.278,1.116,0.939,1.116,1.672v4.003c0,0.695,0.566,1.257,1.258,1.257h5.423
		c0.694,0,1.257-0.562,1.257-1.257v-4.003c0-0.732,0.441-1.394,1.12-1.672c1.065-0.443,2.091-1.038,3.045-1.773
		c0.583-0.448,1.378-0.498,2.011-0.134l3.479,2.009c0.586,0.34,1.386,0.12,1.718-0.46l2.711-4.696
		c0.167-0.292,0.212-0.629,0.124-0.953c-0.085-0.325-0.293-0.597-0.585-0.763l-3.479-2.009c-0.634-0.367-0.984-1.08-0.89-1.806
		c0.089-0.677,0.132-1.237,0.132-1.762c0-0.523-0.043-1.083-0.132-1.76c-0.095-0.726,0.256-1.438,0.89-1.807l3.479-2.008
		c0.292-0.167,0.5-0.438,0.585-0.763c0.088-0.324,0.043-0.662-0.124-0.953l-2.711-4.697c-0.332-0.579-1.132-0.799-1.718-0.46
		l-3.479,2.01c-0.633,0.367-1.428,0.316-2.011-0.134c-0.954-0.735-1.979-1.33-3.045-1.773c-0.679-0.279-1.12-0.94-1.12-1.672V7.414
		c0-0.695-0.563-1.256-1.257-1.256h-5.423c-0.691,0-1.258,0.562-1.258,1.256v4.003c0,0.732-0.441,1.393-1.116,1.672
		c-1.068,0.443-2.094,1.039-3.048,1.773c-0.58,0.448-1.374,0.501-2.011,0.134l-3.479-2.01c-0.588-0.339-1.384-0.119-1.719,0.46
		l-2.71,4.697c-0.169,0.292-0.213,0.629-0.126,0.953c0.088,0.325,0.297,0.596,0.586,0.763l3.479,2.008
		c0.636,0.368,0.987,1.081,0.891,1.807c-0.091,0.677-0.132,1.237-0.132,1.76c0,0.524,0.041,1.085,0.132,1.762
		c0.097,0.726-0.255,1.438-0.891,1.806l-3.479,2.009c-0.289,0.166-0.498,0.438-0.586,0.763c-0.087,0.324-0.043,0.661,0.126,0.953
		l2.711,4.696c0.334,0.58,1.13,0.8,1.718,0.46l3.479-2.009C14.803,35.712,15.115,35.631,15.427,35.631z"/>
</g>
</svg>
