<?xml version="1.0" encoding="utf-8"?>
<!-- Generator: Adobe Illustrator 16.0.0, SVG Export Plug-In . SVG Version: 6.00 Build 0)  -->
<!DOCTYPE svg PUBLIC "-//W3C//DTD SVG 1.1//EN" "http://www.w3.org/Graphics/SVG/1.1/DTD/svg11.dtd">
<svg version="1.1" id="Layer_1" xmlns="http://www.w3.org/2000/svg" xmlns:xlink="http://www.w3.org/1999/xlink" x="0px" y="0px"
	 width="50px" height="50px" viewBox="0 0 50 50" enable-background="new 0 0 50 50" xml:space="preserve">
<g>
	<rect x="5.226" y="13.099" width="36.294" height="4.5"/>
</g>
<g>
	<path d="M36.673,26.665l-3.211-3.153l8.002-8.149l-7.988-7.998l3.183-3.18l9.563,9.574c0.873,0.873,0.879,2.286,0.015,3.167
		L36.673,26.665z"/>
</g>
<g>
	<rect x="8.336" y="32.797" width="36.294" height="4.5"/>
</g>
<g>
	<path d="M13.197,46.211l-9.563-9.573c-0.872-0.873-0.879-2.286-0.014-3.167l9.563-9.739l3.211,3.153l-8.002,8.147l7.988,7.998
		L13.197,46.211z"/>
</g>
</svg>
