<?xml version="1.0" encoding="utf-8"?>
<!-- Generator: Adobe Illustrator 16.0.0, SVG Export Plug-In . SVG Version: 6.00 Build 0)  -->
<!DOCTYPE svg PUBLIC "-//W3C//DTD SVG 1.1//EN" "http://www.w3.org/Graphics/SVG/1.1/DTD/svg11.dtd">
<svg version="1.1" id="Layer_1" xmlns="http://www.w3.org/2000/svg" xmlns:xlink="http://www.w3.org/1999/xlink" x="0px" y="0px"
	 width="50px" height="50px" viewBox="0 0 50 50" enable-background="new 0 0 50 50" xml:space="preserve">
<g>
	<path d="M41.197,44.369H8.795c-3.273,0-5.936-2.663-5.936-5.936V13.173c0-3.273,2.663-5.936,5.936-5.936h26.563
		c3.272,0,5.936,2.663,5.936,5.936h-3.246c0-1.482-1.206-2.688-2.689-2.688H8.795c-1.483,0-2.689,1.206-2.689,2.688v25.261
		c0,1.482,1.207,2.688,2.689,2.688h32.402c1.481,0,2.689-1.206,2.689-2.688V20.958c0-0.025-0.004-0.747-0.351-1.4
		c-0.243-0.457-0.725-1.063-2.113-1.063H9.75v-3.247h31.673c2.113,0,3.394,0.854,4.097,1.572c1.616,1.649,1.616,3.919,1.613,4.171
		v17.442C47.133,41.706,44.47,44.369,41.197,44.369z"/>
</g>
<g>
	<circle cx="36.366" cy="29.544" r="2.11"/>
</g>
</svg>
